<?xml version="1.0" encoding="UTF-8" standalone="no"?>
<!-- Created with Inkscape (http://www.inkscape.org/) -->

<svg
   xmlns:dc="http://purl.org/dc/elements/1.1/"
   xmlns:cc="http://creativecommons.org/ns#"
   xmlns:rdf="http://www.w3.org/1999/02/22-rdf-syntax-ns#"
   xmlns:svg="http://www.w3.org/2000/svg"
   xmlns="http://www.w3.org/2000/svg"
   xmlns:sodipodi="http://sodipodi.sourceforge.net/DTD/sodipodi-0.dtd"
   xmlns:inkscape="http://www.inkscape.org/namespaces/inkscape"
   version="1.1"
   id="svg2"
   xml:space="preserve"
   width="88"
   height="38"
   viewBox="0 0 88.000001 38"
   sodipodi:docname="digma.svg"
   inkscape:version="0.92.1 r15371"
   inkscape:export-filename="E:\image\logo final\digma.png"
   inkscape:export-xdpi="96"
   inkscape:export-ydpi="96"><metadata
     id="metadata8"><rdf:RDF><cc:Work
         rdf:about=""><dc:format>image/svg+xml</dc:format><dc:type
           rdf:resource="http://purl.org/dc/dcmitype/StillImage" /><dc:title></dc:title></cc:Work></rdf:RDF></metadata><defs
     id="defs6"><linearGradient
       x1="0"
       y1="0"
       x2="1"
       y2="0"
       gradientUnits="userSpaceOnUse"
       gradientTransform="matrix(0,42.584316,-42.584316,0,141.7312,49.281296)"
       spreadMethod="pad"
       id="linearGradient30"><stop
         style="stop-opacity:1;stop-color:#f68323"
         offset="0"
         id="stop24" /><stop
         style="stop-opacity:1;stop-color:#f68323"
         offset="0.01314491"
         id="stop26" /><stop
         style="stop-opacity:1;stop-color:#f9b21e"
         offset="1"
         id="stop28" /></linearGradient><clipPath
       clipPathUnits="userSpaceOnUse"
       id="clipPath40"><path
         d="M 0,141.73 H 283.46 V 0 H 0 Z"
         id="path38"
         inkscape:connector-curvature="0" /></clipPath><clipPath
       clipPathUnits="userSpaceOnUse"
       id="clipPath52"><path
         d="M 57.291,89.9678 H 226.167 V 62.9658 H 57.291 Z"
         id="path50"
         inkscape:connector-curvature="0" /></clipPath><clipPath
       clipPathUnits="userSpaceOnUse"
       id="clipPath56"><path
         d="M 57.291,89.9678 H 226.167 V 60.334 H 57.291 Z"
         id="path54"
         inkscape:connector-curvature="0" /></clipPath><clipPath
       clipPathUnits="userSpaceOnUse"
       id="clipPath60"><path
         d="M 57.292,62.966 H 226.167 V 89.968 H 57.292 Z"
         id="path58"
         inkscape:connector-curvature="0" /></clipPath><linearGradient
       x1="0"
       y1="0"
       x2="1"
       y2="0"
       gradientUnits="userSpaceOnUse"
       gradientTransform="matrix(0,-30.620605,30.620605,0,141.72949,92.748535)"
       spreadMethod="pad"
       id="linearGradient70"><stop
         style="stop-opacity:1;stop-color:#ffffff"
         offset="0"
         id="stop66" /><stop
         style="stop-opacity:1;stop-color:#1d191b"
         offset="1"
         id="stop68" /></linearGradient><mask
       maskUnits="userSpaceOnUse"
       x="0"
       y="0"
       width="1"
       height="1"
       id="mask72"><g
         id="g102"><g
           clip-path="url(#clipPath52)"
           id="g100"><path
             d="M 57.291,89.968 H 226.167 V 60.334 H 57.291 Z"
             style="fill:#000000;fill-opacity:1;fill-rule:nonzero;stroke:none"
             id="path74"
             inkscape:connector-curvature="0" /><g
             id="g98"><g
               id="g76" /><g
               id="g96"><g
                 clip-path="url(#clipPath56)"
                 id="g94"><g
                   id="g82"><g
                     clip-path="url(#clipPath60)"
                     id="g80"><path
                       d="M 57.292,89.968 H 226.167 V 60.334 H 57.292 Z"
                       style="fill:#050301;fill-opacity:1;fill-rule:nonzero;stroke:none"
                       id="path78"
                       inkscape:connector-curvature="0" /></g></g><g
                   id="g92"><g
                     id="g90"><g
                       id="g88"><g
                         id="g86"><path
                           d="m 76.395,89.968 c -10.53,0 -19.103,-8.57 -19.103,-19.102 v 0 c 0,-10.532 168.875,-10.532 168.875,0 v 0 c 0,10.532 -8.567,19.102 -19.101,19.102 v 0 z"
                           style="fill:url(#linearGradient70);stroke:none"
                           id="path84"
                           inkscape:connector-curvature="0" /></g></g></g></g></g></g></g></g></g></mask><clipPath
       clipPathUnits="userSpaceOnUse"
       id="clipPath110"><path
         d="M 57.291,89.9678 H 226.167 V 62.9658 H 57.291 Z"
         id="path108"
         inkscape:connector-curvature="0" /></clipPath><clipPath
       clipPathUnits="userSpaceOnUse"
       id="clipPath114"><path
         d="M 57.292,62.966 H 226.167 V 89.968 H 57.292 Z"
         id="path112"
         inkscape:connector-curvature="0" /></clipPath></defs><sodipodi:namedview
     pagecolor="#ffffff"
     bordercolor="#666666"
     borderopacity="1"
     objecttolerance="10"
     gridtolerance="10"
     guidetolerance="10"
     inkscape:pageopacity="0"
     inkscape:pageshadow="2"
     inkscape:window-width="1366"
     inkscape:window-height="705"
     id="namedview4"
     showgrid="false"
     inkscape:zoom="5.6875873"
     inkscape:cx="68.249038"
     inkscape:cy="38.769815"
     inkscape:window-x="-8"
     inkscape:window-y="-8"
     inkscape:window-maximized="1"
     inkscape:current-layer="g10" /><g
     id="g10"
     inkscape:groupmode="layer"
     inkscape:label="digma"
     transform="matrix(1.3333333,0,0,-1.3333333,0,38.000002)"><g
       id="g159"
       transform="translate(-53.564,-42.502892)"><g
         transform="matrix(0.37161913,0,0,0.37161913,33.894236,30.417844)"
         id="g12"><g
           id="g14"><g
             id="g20"><g
               id="g22"><path
                 inkscape:connector-curvature="0"
                 id="path32"
                 style="fill:url(#linearGradient30);stroke:none"
                 d="m 76.395,92.448 c -11.919,0 -21.582,-9.662 -21.582,-21.582 v 0 c 0,-11.922 9.663,-21.585 21.582,-21.585 v 0 h 130.671 c 11.919,0 21.583,9.663 21.583,21.585 v 0 c 0,11.92 -9.664,21.582 -21.583,21.582 v 0 z" /></g></g></g></g><g
         transform="matrix(0.37161913,0,0,0.37161913,33.894236,30.417844)"
         id="g34"><g
           clip-path="url(#clipPath40)"
           id="g36"><g
             transform="translate(55.689,70.8657)"
             id="g42"><path
               inkscape:connector-curvature="0"
               id="path44"
               style="fill:#ffffff;fill-opacity:1;fill-rule:evenodd;stroke:none"
               d="m 0,0 c 0,11.417 9.289,20.709 20.706,20.709 h 130.67 c 11.418,0 20.705,-9.292 20.705,-20.709 0,-11.418 -9.287,-20.709 -20.705,-20.709 H 20.706 C 9.289,-20.709 0,-11.418 0,0 M 20.706,22.459 C 8.324,22.459 -1.75,12.383 -1.75,0 c 0,-12.383 10.074,-22.459 22.456,-22.459 h 130.67 c 12.381,0 22.457,10.076 22.457,22.459 0,12.383 -10.076,22.459 -22.457,22.459 z" /></g><g
             id="g46"><g
               id="g48" /><g
               mask="url(#mask72)"
               id="g104"><g
                 id="g106" /><g
                 id="g126"><g
                   id="g124"
                   clip-path="url(#clipPath110)"><g
                     id="g122"><g
                       id="g120"
                       clip-path="url(#clipPath114)"><g
                         id="g118"
                         transform="translate(76.395,89.9678)"><path
                           inkscape:connector-curvature="0"
                           id="path116"
                           style="fill:#ffffff;fill-opacity:1;fill-rule:evenodd;stroke:none"
                           d="m 0,0 c -10.53,0 -19.104,-8.57 -19.104,-19.102 0,-10.532 168.876,-10.532 168.876,0 C 149.772,-8.57 141.206,0 130.67,0 Z" /></g></g></g></g></g></g></g><g
             transform="translate(129.3208,76.8271)"
             id="g128"><path
               inkscape:connector-curvature="0"
               id="path130"
               style="fill:#1d191b;fill-opacity:1;fill-rule:evenodd;stroke:none"
               d="m 0,0 -6.309,-13.677 h 5.386 L 5.384,0 Z m -10.276,-7.511 c -1.413,-2.269 -2.621,-2.411 -4.958,-2.411 h -3.9 l 2.835,6.166 h 5.243 c 2.127,0 1.772,-2.054 0.78,-3.755 M -10.984,0 h -8.997 l -6.308,-13.677 h 11.975 c 0.709,0.071 1.417,0.071 2.126,0.211 7.016,1.42 10.84,12.97 1.204,13.466 m 45.221,0 c -1.209,0 -3.049,-0.213 -4.254,-3.401 -0.496,-1.136 -1.063,-2.269 -1.561,-3.402 -0.566,-1.134 -1.06,-2.339 -1.558,-3.471 -0.569,-1.137 -1.063,-2.265 -1.561,-3.403 h 5.387 c 0.498,1.138 1.061,2.266 1.561,3.403 0.142,0.284 0.281,0.564 0.425,0.85 0.071,0.282 0.211,0.568 0.352,0.922 0.142,0.28 0.289,0.565 0.424,0.844 0.07,0.286 0.215,0.57 0.359,0.855 0.141,0.214 0.209,0.496 0.354,0.707 0.142,0.286 0.214,0.569 0.353,0.782 0.143,0.283 0.213,0.497 0.355,0.777 0.354,0.781 0.565,0.781 1.628,0.781 h 3.687 l -4.535,-9.921 h 5.457 l 4.537,9.921 h 4.889 l -4.538,-9.921 h 5.385 L 57.694,0 Z M 68.606,-4.325 C 68.534,-4.537 68.391,-4.748 68.323,-4.96 68.249,-5.102 68.18,-5.314 68.038,-5.527 67.965,-5.67 67.897,-5.88 67.827,-6.096 h -4.748 c 0.072,0.216 0.142,0.426 0.211,0.569 0.14,0.213 0.211,0.425 0.283,0.567 0.498,1.061 0.498,1.204 1.703,1.204 h 3.613 C 68.748,-3.971 68.674,-4.183 68.606,-4.325 M 63.151,0 c -1.207,0 -3.049,-0.213 -4.252,-3.401 -0.568,-1.136 -1.067,-2.269 -1.631,-3.402 -0.498,-1.134 -0.992,-2.339 -1.56,-3.471 -0.495,-1.137 -0.995,-2.265 -1.557,-3.403 h 5.453 c 0.498,1.138 0.992,2.266 1.561,3.403 0.14,0.421 0.285,0.779 0.496,1.132 h 4.746 l -2.053,-4.535 h 5.385 L 75.975,0 Z M 17.153,-4.676 15.52,-8.292 h 4.256 l -0.781,-1.63 h -7.371 c -2.132,0 -3.052,2.058 -1.987,3.826 1.349,2.27 2.556,2.34 4.893,2.34 H 27.149 L 28.92,0 H 14.53 c -2.125,0 -4.113,-0.213 -5.885,-1.417 -4.82,-3.4 -5.955,-11.768 2.271,-12.26 h 11.766 l 4.039,9.001 z m -52.444,4.253 c 1.206,0 2.199,0.989 2.199,2.195 0,1.203 -0.993,2.195 -2.199,2.195 -1.203,0 -2.194,-0.992 -2.194,-2.195 0,-1.206 0.991,-2.195 2.194,-2.195 m -1.062,-5.529 c -1.701,0.072 -3.543,-0.709 -4.89,-1.488 -4.181,-2.27 -7.083,-6.733 -9.495,-10.629 0,-0.073 -0.992,-1.844 -0.921,-1.771 3.048,3.538 9.992,10.06 14.952,9.635 3.048,-0.213 3.118,-2.619 3.327,-4.11 1.706,2.904 1.066,8.292 -2.973,8.363 m 0.496,4.463 c -5.667,0.567 -13.462,0.781 -12.047,-7.367 3.473,4.531 5.386,4.319 10.841,4.039 3.12,-0.143 6.168,-0.285 8.505,1.416 1.064,0.78 1.844,1.77 1.984,3.472 -2.761,-1.56 -5.315,-2.054 -9.283,-1.56" /></g><g
             transform="translate(128.6636,77.4824)"
             id="g132"><path
               inkscape:connector-curvature="0"
               id="path134"
               style="fill:#ffffff;fill-opacity:1;fill-rule:evenodd;stroke:none"
               d="m 0,0 -6.306,-13.674 h 5.383 L 5.387,0 Z m -10.274,-7.511 c -1.414,-2.268 -2.622,-2.411 -4.96,-2.411 h -3.899 l 2.837,6.167 h 5.242 c 2.127,0 1.773,-2.054 0.78,-3.756 M -10.984,0 h -8.997 l -6.309,-13.674 h 11.976 c 0.71,0.07 1.418,0.07 2.126,0.21 7.017,1.419 10.842,12.967 1.204,13.464 m 45.218,0 c -1.205,0 -3.047,-0.212 -4.254,-3.402 -0.492,-1.134 -1.061,-2.27 -1.559,-3.4 -0.564,-1.134 -1.058,-2.341 -1.554,-3.473 -0.573,-1.133 -1.065,-2.267 -1.561,-3.399 h 5.385 c 0.496,1.132 1.062,2.266 1.56,3.399 0.143,0.287 0.284,0.567 0.426,0.853 0.069,0.279 0.213,0.565 0.352,0.922 0.142,0.279 0.285,0.564 0.428,0.848 0.066,0.28 0.209,0.566 0.353,0.85 0.143,0.21 0.213,0.496 0.356,0.709 0.14,0.284 0.212,0.564 0.353,0.779 0.141,0.284 0.211,0.498 0.357,0.778 0.35,0.781 0.565,0.781 1.627,0.781 h 3.686 l -4.537,-9.919 h 5.459 l 4.535,9.919 h 4.891 l -4.536,-9.919 h 5.383 L 57.695,0 Z m 34.373,-4.323 c -0.072,-0.213 -0.213,-0.423 -0.283,-0.636 -0.073,-0.142 -0.145,-0.355 -0.283,-0.57 -0.073,-0.143 -0.143,-0.353 -0.213,-0.564 h -4.75 c 0.07,0.211 0.144,0.421 0.214,0.564 0.141,0.215 0.211,0.428 0.284,0.57 0.496,1.06 0.496,1.204 1.703,1.204 h 3.609 C 68.748,-3.969 68.677,-4.18 68.607,-4.323 M 63.148,0 c -1.199,0 -3.047,-0.212 -4.25,-3.402 -0.566,-1.134 -1.065,-2.27 -1.629,-3.4 -0.496,-1.134 -0.992,-2.341 -1.559,-3.473 -0.498,-1.133 -0.992,-2.267 -1.56,-3.399 h 5.457 c 0.494,1.132 0.99,2.266 1.559,3.399 0.14,0.425 0.285,0.78 0.494,1.132 h 4.75 l -2.057,-4.531 H 69.74 L 75.976,0 Z M 17.154,-4.676 15.525,-8.292 h 4.252 l -0.779,-1.63 h -7.371 c -2.131,0 -3.054,2.059 -1.99,3.829 1.349,2.267 2.556,2.338 4.896,2.338 H 27.148 L 28.919,0 H 14.533 C 12.402,0 10.418,-0.212 8.646,-1.418 3.825,-4.816 2.69,-13.182 10.916,-13.674 h 11.767 l 4.039,8.998 z m -52.441,4.251 c 1.204,0 2.196,0.993 2.196,2.196 0,1.206 -0.992,2.199 -2.196,2.199 -1.208,0 -2.2,-0.993 -2.2,-2.199 0,-1.203 0.992,-2.196 2.2,-2.196 m -1.064,-5.527 c -1.703,0.07 -3.544,-0.711 -4.889,-1.486 -4.183,-2.27 -7.086,-6.734 -9.496,-10.63 0,-0.073 -0.993,-1.844 -0.92,-1.772 3.044,3.542 9.989,10.061 14.952,9.635 3.045,-0.211 3.116,-2.622 3.328,-4.108 1.701,2.905 1.062,8.29 -2.975,8.361 m 0.496,4.464 c -5.669,0.568 -13.464,0.781 -12.046,-7.369 3.471,4.534 5.383,4.321 10.841,4.041 3.121,-0.143 6.165,-0.285 8.502,1.414 1.065,0.779 1.844,1.773 1.984,3.472 -2.761,-1.558 -5.314,-2.055 -9.281,-1.558" /></g></g></g></g></g></svg>