<?xml version="1.0" encoding="UTF-8" standalone="no"?>
<!-- Created with Inkscape (http://www.inkscape.org/) -->

<svg
   xmlns:dc="http://purl.org/dc/elements/1.1/"
   xmlns:cc="http://creativecommons.org/ns#"
   xmlns:rdf="http://www.w3.org/1999/02/22-rdf-syntax-ns#"
   xmlns:svg="http://www.w3.org/2000/svg"
   xmlns="http://www.w3.org/2000/svg"
   xmlns:sodipodi="http://sodipodi.sourceforge.net/DTD/sodipodi-0.dtd"
   xmlns:inkscape="http://www.inkscape.org/namespaces/inkscape"
   version="1.1"
   id="svg2"
   xml:space="preserve"
   width="88"
   height="38"
   viewBox="0 0 88.000002 38"
   sodipodi:docname="branding_lenovo-logo_lenovologoposred_high_res.svg"
   inkscape:version="0.92.1 r15371"
   inkscape:export-filename="E:\image\logo final\lenovo.png"
   inkscape:export-xdpi="96"
   inkscape:export-ydpi="96"><metadata
     id="metadata8"><rdf:RDF><cc:Work
         rdf:about=""><dc:format>image/svg+xml</dc:format><dc:type
           rdf:resource="http://purl.org/dc/dcmitype/StillImage" /><dc:title /></cc:Work></rdf:RDF></metadata><defs
     id="defs6"><clipPath
       clipPathUnits="userSpaceOnUse"
       id="clipPath20"><path
         d="M 0,533.333 H 1600 V 0 H 0 Z"
         id="path18"
         inkscape:connector-curvature="0" /></clipPath></defs><sodipodi:namedview
     pagecolor="#ffffff"
     bordercolor="#666666"
     borderopacity="1"
     objecttolerance="10"
     gridtolerance="10"
     guidetolerance="10"
     inkscape:pageopacity="0"
     inkscape:pageshadow="2"
     inkscape:window-width="1366"
     inkscape:window-height="705"
     id="namedview4"
     showgrid="false"
     inkscape:zoom="5.3563341"
     inkscape:cx="16.27218"
     inkscape:cy="5.8993121"
     inkscape:window-x="-8"
     inkscape:window-y="-8"
     inkscape:window-maximized="1"
     inkscape:current-layer="g10" /><g
     id="g10"
     inkscape:groupmode="layer"
     inkscape:label="branding_lenovo-logo_lenovologoposred_high_res"
     transform="matrix(1.3333333,0,0,-1.3333333,0,38.000013)"><path
       d="M 1.8749998,3.8750164 H 64.125002 V 24.625004 H 1.8749998 Z"
       style="fill:#d32011;fill-opacity:1;fill-rule:nonzero;stroke:none;stroke-width:0.03890621"
       id="path12"
       inkscape:connector-curvature="0"
       inkscape:export-filename="E:\image\logo final\path12.png"
       inkscape:export-xdpi="96"
       inkscape:export-ydpi="96" /><g
       id="g14"
       transform="matrix(0.04078125,0,0,0.04078125,0.37500001,2.9757501)"><g
         id="g16"
         clip-path="url(#clipPath20)"><g
           id="g22"
           transform="translate(697.0453,353.5876)"><path
             d="m 0,0 c -23.629,0 -50.507,-10.954 -66.93,-32.886 l 0.012,0.04 -0.012,-0.016 0.012,29.423 h -56.374 V -208.71 h 56.362 v 116.797 c 0,21.024 16.295,43.366 46.471,43.366 23.325,0 47.456,-16.218 47.456,-43.366 V -208.71 H 83.362 V -81.463 C 83.362,-34.261 49.591,0 0,0"
             style="fill:#ffffff;fill-opacity:1;fill-rule:nonzero;stroke:none"
             id="path24"
             inkscape:connector-curvature="0" /></g><g
           id="g26"
           transform="translate(1181.0183,350.1335)"><path
             d="M 0,0 -50.957,-139.827 -101.913,0 h -64.383 l 84.462,-205.195 H -20.08 L 64.382,0 Z"
             style="fill:#ffffff;fill-opacity:1;fill-rule:nonzero;stroke:none"
             id="path28"
             inkscape:connector-curvature="0" /></g><g
           id="g30"
           transform="translate(405.4833,288.2962)"><path
             d="m 0,0 c 9.597,12.886 24.89,20.45 43.356,20.45 20.315,0 35.725,-11.6 43.687,-28.715 L -11.429,-49.118 C -14.124,-28.159 -8.758,-11.759 0,0 m 108.289,-80.31 c -23.726,-17.553 -37.28,-21.749 -58.913,-21.749 -19.47,0 -34.708,6.045 -45.456,16.647 l 144.1,59.782 C 144.877,-3.35 136.426,16.543 123.411,31.673 104.48,53.67 76.453,65.301 42.339,65.301 c -61.981,0 -108.718,-45.727 -108.718,-106.114 0,-61.95 46.841,-106.096 114.922,-106.096 38.145,0 77.146,18.08 95.385,39.197 z"
             style="fill:#ffffff;fill-opacity:1;fill-rule:nonzero;stroke:none"
             id="path32"
             inkscape:connector-curvature="0" /></g><g
           id="g34"
           transform="translate(333.7333,196.6307)"><path
             d="m 0,0 h -128.115 v 214.896 h -57.124 V -51.753 H 0 Z"
             style="fill:#ffffff;fill-opacity:1;fill-rule:nonzero;stroke:none"
             id="path36"
             inkscape:connector-curvature="0" /></g><g
           id="g38"
           transform="translate(1346.6062,305.295)"><path
             d="m 0,0 c -31.48,0 -54.325,-23.852 -54.325,-57.793 0,-32.4 24.204,-57.786 55.088,-57.786 31.48,0 54.331,24.511 54.331,57.786 C 55.094,-25.387 30.89,0 0,0 m 0,-163.878 c -61.644,0 -109.937,45.923 -109.937,106.085 0,59.49 48.627,106.095 110.7,106.095 61.638,0 109.93,-45.923 109.93,-106.095 0,-59.476 -48.623,-106.085 -110.693,-106.085"
             style="fill:#ffffff;fill-opacity:1;fill-rule:nonzero;stroke:none"
             id="path40"
             inkscape:connector-curvature="0" /></g><g
           id="g42"
           transform="translate(912.6439,305.295)"><path
             d="m 0,0 c -31.481,0 -54.325,-23.852 -54.325,-57.793 0,-32.4 24.204,-57.786 55.087,-57.786 31.481,0 54.332,24.511 54.332,57.786 C 55.094,-25.387 30.89,0 0,0 m 0,-163.878 c -61.644,0 -109.937,45.923 -109.937,106.085 0,59.49 48.626,106.095 110.699,106.095 61.639,0 109.931,-45.923 109.931,-106.095 0,-59.476 -48.623,-106.085 -110.693,-106.085"
             style="fill:#ffffff;fill-opacity:1;fill-rule:nonzero;stroke:none"
             id="path44"
             inkscape:connector-curvature="0" /></g><g
           id="g46"
           transform="translate(1486.1096,174.429)"><path
             d="M 0,0 H 6.045 L 14.972,-14.007 23.892,0 h 5.855 V -29.551 H 24.278 V -8.538 L 15.161,-22.741 H 14.583 L 5.472,-8.538 V -29.551 H 0 Z m -21.105,-5.181 h -9.117 V 0 H -6.33 v -5.181 h -9.116 v -24.37 h -5.659 z"
             style="fill:#ffffff;fill-opacity:1;fill-rule:nonzero;stroke:none"
             id="path48"
             inkscape:connector-curvature="0" /></g></g></g></g></svg>