<?xml version="1.0" encoding="UTF-8" standalone="no"?>
<!-- Created with Inkscape (http://www.inkscape.org/) -->

<svg
   xmlns:dc="http://purl.org/dc/elements/1.1/"
   xmlns:cc="http://creativecommons.org/ns#"
   xmlns:rdf="http://www.w3.org/1999/02/22-rdf-syntax-ns#"
   xmlns:svg="http://www.w3.org/2000/svg"
   xmlns="http://www.w3.org/2000/svg"
   xmlns:sodipodi="http://sodipodi.sourceforge.net/DTD/sodipodi-0.dtd"
   xmlns:inkscape="http://www.inkscape.org/namespaces/inkscape"
   version="1.1"
   id="svg2"
   xml:space="preserve"
   width="88"
   height="38"
   viewBox="0 0 87.999999 37.999999"
   sodipodi:docname="prestigio_logo.svg"
   inkscape:version="0.92.1 r15371"
   inkscape:export-filename="E:\image\logo final\prestigio.png"
   inkscape:export-xdpi="96"
   inkscape:export-ydpi="96"><metadata
     id="metadata8"><rdf:RDF><cc:Work
         rdf:about=""><dc:format>image/svg+xml</dc:format><dc:type
           rdf:resource="http://purl.org/dc/dcmitype/StillImage" /><dc:title></dc:title></cc:Work></rdf:RDF></metadata><defs
     id="defs6"><clipPath
       clipPathUnits="userSpaceOnUse"
       id="clipPath18"><path
         d="M 83.616,378.836 H 520.4 v 83.757 H 83.616 Z"
         id="path16"
         inkscape:connector-curvature="0" /></clipPath></defs><sodipodi:namedview
     pagecolor="#ffffff"
     bordercolor="#666666"
     borderopacity="1"
     objecttolerance="10"
     gridtolerance="10"
     guidetolerance="10"
     inkscape:pageopacity="0"
     inkscape:pageshadow="2"
     inkscape:window-width="1366"
     inkscape:window-height="705"
     id="namedview4"
     showgrid="false"
     inkscape:zoom="4.7572162"
     inkscape:cx="49.880882"
     inkscape:cy="53.767696"
     inkscape:window-x="-8"
     inkscape:window-y="-8"
     inkscape:window-maximized="1"
     inkscape:current-layer="g10" /><g
     id="g10"
     inkscape:groupmode="layer"
     inkscape:label="prestigio_logo"
     transform="matrix(1.3333333,0,0,-1.3333333,0,37.99998)"><g
       clip-path="url(#clipPath18)"
       id="g14"
       transform="matrix(0.17632803,0,0,0.17632803,-28.757895,-59.241475)"><g
         id="g70"><g
           id="g20"
           transform="translate(512.7158,406.4991)"><path
             d="m 0,0 v 16.746 c 0,3.506 -3.101,5.212 -9.312,5.212 h -12.239 c -2.276,0 -4.285,-0.338 -6.021,-1.03 -2.743,-1.015 -4.017,-2.641 -4.017,-4.874 V 0 c 0,-2.141 1.368,-3.59 4.109,-4.536 1.733,-0.595 3.742,-0.934 5.929,-0.934 h 12.328 c 1.92,0 3.745,0.339 5.57,1.015 C -1.185,-3.424 0,-1.964 0,0 m 7.666,0 c 0,-5.05 -2.005,-8.719 -6.021,-11.032 -2.746,-1.626 -6.298,-2.48 -10.683,-2.48 h -12.597 c -8.13,0 -13.423,2.572 -16.069,7.69 -1.008,1.801 -1.464,3.762 -1.464,5.822 v 16.054 c 0,3.506 1.273,6.592 3.93,9.234 3.189,3.167 7.758,4.793 13.603,4.793 H -9.038 C 2.1,30.081 7.666,25.383 7.666,16.15 Z m -77.054,-5.131 v 21.104 c 0,2.141 -1.461,3.844 -4.293,4.955 -1.921,0.692 -4.017,1.112 -6.301,1.112 h -11.959 c -2.738,0 -4.746,-0.258 -6.027,-0.597 -2.464,-0.772 -3.737,-2.303 -3.737,-4.778 V 0.42 c 0,-3.672 3.737,-5.551 11.224,-5.551 z m 7.577,-6.92 c 0,-5.047 -2.463,-8.719 -7.488,-11.032 -3.466,-1.623 -7.575,-2.477 -12.233,-2.477 h -3.193 c -1.92,0 -2.837,1.204 -2.837,3.587 v 0.947 c 0,2.398 0.917,3.505 2.837,3.505 h 5.474 c 1.281,0 3.194,0.514 5.57,1.368 2.738,1.112 4.114,2.046 4.114,2.991 h -20.727 c -4.842,0 -8.858,0.762 -12.059,2.384 -4.562,2.221 -6.929,5.904 -6.929,11.117 v 16.149 c 0,4.536 1.913,8.027 5.564,10.507 3.197,2.056 6.935,3.086 11.411,3.086 h 11.137 c 4.753,0 8.857,-0.853 12.238,-2.572 4.742,-2.302 7.121,-6.066 7.121,-11.197 z m -54.874,2.126 c 0,-2.384 -0.913,-3.587 -2.826,-3.587 h -1.919 c -1.824,0 -2.737,1.203 -2.737,3.587 v 32.91 c 0,2.398 0.913,3.59 2.737,3.59 h 1.919 c 1.913,0 2.826,-1.192 2.826,-3.59 z m -69.484,31.883 c -2.921,0 -4.56,0 -5.108,-0.084 -2.558,-0.431 -3.834,-1.46 -3.834,-2.991 v -2.314 c 0,-1.53 0.825,-2.641 2.557,-3.156 1.368,-0.512 3.657,-0.688 6.938,-0.688 h 12.508 c 9.314,0 13.968,-3.925 13.968,-11.79 v -1.964 c 0,-8.285 -5.021,-12.483 -14.968,-12.483 h -25.568 c -1.828,0 -2.825,1.203 -2.825,3.587 v 0.864 c 0,2.388 0.997,3.591 2.825,3.591 h 25.659 c 4.654,0 7.03,1.449 7.03,4.441 v 1.626 c 0,2.652 -2.105,3.924 -6.49,3.924 h -12.227 c -4.75,0 -8.402,0.596 -10.955,1.799 -3.93,1.884 -5.938,5.213 -5.938,10.168 v 2.395 c 0,7.435 5.385,11.198 16.252,11.198 h 33.69 v 8.204 c 0,2.302 0.913,3.505 2.829,3.505 h 1.917 c 1.916,0 2.832,-1.203 2.832,-3.505 v -8.638 h 11.963 c 1.918,0 2.826,-1.111 2.826,-3.506 v -0.934 c 0,-2.395 -0.908,-3.167 -2.826,-3.167 h -11.963 V -9.925 c 0,-2.384 -0.916,-3.587 -2.832,-3.587 h -1.917 c -1.916,0 -2.829,1.203 -2.829,3.587 V 22.04 Z m -27.109,-10.087 v 5.39 c 0,1.622 -1.46,2.898 -4.384,3.763 -2.01,0.677 -3.927,0.934 -5.843,0.934 h -10.954 c -7.58,0 -11.412,-1.706 -11.412,-5.132 v -4.955 z m 7.392,-4.359 c 0,-2.641 -0.732,-3.925 -2.097,-3.925 h -37.614 c 0,-6.066 3.282,-9.057 9.764,-9.057 h 5.662 c 1.917,0 2.834,-1.203 2.834,-3.591 v -0.864 c 0,-2.384 -0.917,-3.587 -2.834,-3.587 h -4.84 c -4.837,0 -8.763,0.854 -11.866,2.48 -4.382,2.229 -6.486,6.077 -6.486,11.286 v 16.058 c 0,4.966 2.104,8.719 6.486,11.113 3.103,1.803 7.029,2.656 11.593,2.656 h 14.152 c 3.747,0 7.029,-0.853 9.77,-2.479 3.652,-2.138 5.476,-5.305 5.476,-9.573 z m -47.565,17.952 c 0,-2.314 -0.91,-3.506 -2.832,-3.506 h -3.466 c -5.663,0 -8.491,-1.799 -8.491,-5.389 V -9.925 c 0,-2.384 -0.917,-3.587 -2.74,-3.587 h -2.104 c -1.823,0 -2.733,1.203 -2.733,3.683 l 0.086,26.398 c 0,4.874 1.916,8.462 5.661,10.775 2.924,1.787 6.483,2.737 10.778,2.737 h 3.009 c 1.922,0 2.832,-1.207 2.832,-3.59 z M -46.565,-9.925 c 0,-2.384 -1.005,-3.587 -2.83,-3.587 h -1.913 c -1.832,0 -2.835,1.203 -2.835,3.587 v 32.91 c 0,2.398 1.003,3.59 2.835,3.59 h 1.913 c 1.825,0 2.83,-1.192 2.83,-3.59 z"
             style="fill:#242021;fill-opacity:1;fill-rule:evenodd;stroke:none"
             id="path22"
             inkscape:connector-curvature="0" /></g><g
           id="g24"
           transform="translate(235.7979,438.9635)"><path
             d="m 0,0 c 0,5.467 -2.191,8.634 -6.574,11.114 -3.195,1.799 -8.582,2.56 -13.508,2.56 h -32.78 c -1.918,0 -2.829,-1.192 -2.829,-3.59 v -52.473 c 0,-2.384 0.911,-3.587 2.829,-3.587 h 2.284 c 1.916,0 2.826,1.203 2.826,3.587 v 18.806 h 27.67 c 4.926,0 10.313,0.772 13.508,2.571 C -2.191,-18.537 0,-15.38 0,-9.91 Z m -19.627,6.239 c 3.196,0 7.029,-0.257 8.584,-1.015 1.916,-0.949 2.92,-2.652 3.102,-5.051 v -9.744 c 0,-2.734 -1.003,-4.526 -3.102,-5.552 -1.555,-0.772 -5.388,-1.029 -8.584,-1.029 H -47.752 V 6.239 Z"
             style="fill:#242020;fill-opacity:1;fill-rule:evenodd;stroke:none"
             id="path26"
             inkscape:connector-curvature="0" /></g></g></g></g></svg>